C:\Users\Administrator\Documents\spring-course\Solutions\workspace\CompactDiscDaoWithRestAndBoot\src\test\java\com\conygre\spring\boot\rest\TestCompactDiscController.java
C:\Users\Administrator\Documents\spring-course\Solutions\workspace\CompactDiscDaoWithRestAndBoot\src\test\java\com\conygre\spring\boot\repo\TestCDRepository.java
C:\Users\Administrator\Documents\spring-course\Solutions\workspace\CompactDiscDaoWithRestAndBoot\src\test\java\controllers\TestCompactDiscController.java
